<?xml version="1.0" encoding="UTF-8" standalone="no"?>
<!-- Created with Inkscape (http://www.inkscape.org/) -->

<svg
   xmlns:dc="http://purl.org/dc/elements/1.1/"
   xmlns:cc="http://creativecommons.org/ns#"
   xmlns:rdf="http://www.w3.org/1999/02/22-rdf-syntax-ns#"
   xmlns:svg="http://www.w3.org/2000/svg"
   xmlns="http://www.w3.org/2000/svg"
   xmlns:xlink="http://www.w3.org/1999/xlink"
   xmlns:sodipodi="http://sodipodi.sourceforge.net/DTD/sodipodi-0.dtd"
   xmlns:inkscape="http://www.inkscape.org/namespaces/inkscape"
   version="1.1"
   width="70"
   height="70"
   id="svg_SKIN_VERTIGO"
   inkscape:version="0.48.5 r10040"
   sodipodi:docname="FindingType_SKIN_VERTIGO.svg">
  <sodipodi:namedview
     pagecolor="#ffffff"
     bordercolor="#666666"
     borderopacity="1"
     objecttolerance="10"
     gridtolerance="10"
     guidetolerance="10"
     inkscape:pageopacity="0"
     inkscape:pageshadow="2"
     inkscape:window-width="1920"
     inkscape:window-height="1027"
     id="namedview25"
     showgrid="false"
     inkscape:zoom="3.3714286"
     inkscape:cx="35"
     inkscape:cy="35"
     inkscape:window-x="1912"
     inkscape:window-y="-8"
     inkscape:window-maximized="1"
     inkscape:current-layer="svg_SKIN_VERTIGO" />
  <defs
     id="defs_SKIN_VERTIGO_2987">
    <pattern
       patternTransform="translate(162.8154,-414.01535)"
       id="pattern_SKIN_VERTIGO_6022"
       xlink:href="#pattern_SKIN_VERTIGO_5995" />
    <pattern
       patternTransform="translate(162.8154,-414.01535)"
       id="pattern_SKIN_VERTIGO_5997"
       xlink:href="#pattern_SKIN_VERTIGO_3826" />
    <pattern
       patternTransform="translate(372.71919,-842.54896)"
       id="pattern_SKIN_VERTIGO_5995"
       xlink:href="#pattern_SKIN_VERTIGO_4564" />
    <pattern
       patternTransform="translate(382.41878,-833.2878)"
       id="pattern_SKIN_VERTIGO_4564"
       xlink:href="#pattern_SKIN_VERTIGO_3826" />
    <pattern
       id="pattern_SKIN_VERTIGO_3826"
       patternTransform="translate(162.8154,-414.01535)"
       height="4.5704576"
       width="4.5834587"
       patternUnits="userSpaceOnUse">
      <path
         style="fill:none;stroke:#e208d5;stroke-width:1px;stroke-linecap:round;stroke-linejoin:miter;stroke-opacity:1"
         d="M 0.51884067,0.51331959 4.0695807,4.0640596"
         id="path3824" />
    </pattern>
  </defs>
  <metadata
     id="metadata2990">
    <rdf:RDF>
      <cc:Work
         rdf:about="">
        <dc:format>image/svg+xml</dc:format>
        <dc:type
           rdf:resource="http://purl.org/dc/dcmitype/StillImage" />
        <dc:title />
      </cc:Work>
    </rdf:RDF>
  </metadata>
  <g
     id="g_SKIN_VERTIGO"
     style="opacity:0.75">
    <path
       d="m 64.086601,24.711773 a 37.759132,37.759132 0 1 1 -75.518265,0 37.759132,37.759132 0 1 1 75.518265,0 z"
       transform="matrix(0.89492097,0,0,0.89492097,11.6979,12.40632)"
       id="path_SKIN_VERTIGO"
       style="color:#000000;fill:#000000;stroke:#000000;stroke-width:0.69999999000000002;stroke-linecap:round;stroke-linejoin:miter;stroke-miterlimit:0;stroke-opacity:1;stroke-dasharray:2.61922569999999990, 2.61922569999999990;stroke-dashoffset:0;marker:none;visibility:visible;display:inline;overflow:visible;enable-background:accumulate;fill-opacity:0"
       inkscape:connector-curvature="0" />
    <g
       transform="matrix(0.72939592,0,0,0.72939592,11.772229,11.476478)"
       id="layer1">
      <rect
         width="64.15387"
         height="64.539566"
         x="0"
         y="-0.41099954"
         id="rect3840"
         style="color:#000000;fill:#17ff21;fill-opacity:0.5;stroke:#000000;stroke-width:0.5;stroke-miterlimit:4;stroke-opacity:1;stroke-dasharray:none;marker:none;visibility:visible;display:inline;overflow:visible;enable-background:accumulate" />
      <g
         transform="matrix(0.9683636,0,0,0.9683636,0.89233483,0.63440449)"
         id="g3834"
         style="stroke-width:3.09800982000000010;stroke-miterlimit:4;stroke-dasharray:none">
        <path
           d="m 59.396971,24.016325 a 26.162951,8.2281513 0 1 1 -52.3259013,0 26.162951,8.2281513 0 1 1 52.3259013,0 z"
           transform="matrix(1.0242417,0.60473416,-0.47028886,1.31705,9.5247233,-19.483971)"
           id="path_SKIN_VERTIGO_3826"
           style="color:#000000;fill:none;stroke:#000000;stroke-width:2.42403865000000000;stroke-linecap:butt;stroke-linejoin:miter;stroke-miterlimit:4;stroke-opacity:1;stroke-dasharray:none;stroke-dashoffset:0;marker:none;visibility:visible;display:inline;overflow:visible;enable-background:accumulate"
           inkscape:connector-curvature="0" />
        <path
           d="m 59.396971,24.016325 a 26.162951,8.2281513 0 1 1 -52.3259013,0 26.162951,8.2281513 0 1 1 52.3259013,0 z"
           transform="matrix(1.0068529,-0.63326268,0.95512727,1.0215303,-24.130634,28.756938)"
           id="path_SKIN_VERTIGO_3828"
           style="color:#000000;fill:none;stroke:#000000;stroke-width:2.42403865000000000;stroke-linecap:butt;stroke-linejoin:miter;stroke-miterlimit:4;stroke-opacity:1;stroke-dasharray:none;stroke-dashoffset:0;marker:none;visibility:visible;display:inline;overflow:visible;enable-background:accumulate"
           inkscape:connector-curvature="0" />
        <path
           d="m 59.396971,24.016325 a 26.162951,8.2281513 0 1 1 -52.3259013,0 26.162951,8.2281513 0 1 1 52.3259013,0 z"
           transform="matrix(-0.04499512,-1.1885915,1.3622348,-0.31639933,1.0492776,79.3449)"
           id="path_SKIN_VERTIGO_3830"
           style="color:#000000;fill:none;stroke:#000000;stroke-width:2.42403888999999980;stroke-linecap:butt;stroke-linejoin:miter;stroke-miterlimit:4;stroke-opacity:1;stroke-dasharray:none;stroke-dashoffset:0;marker:none;visibility:visible;display:inline;overflow:visible;enable-background:accumulate"
           inkscape:connector-curvature="0" />
        <path
           d="m 41.012192,34.880058 a 6.299679,6.2353966 0 1 1 -12.599358,0 6.299679,6.2353966 0 1 1 12.599358,0 z"
           transform="translate(-2.4427304,-2.6355814)"
           id="path_SKIN_VERTIGO_3832"
           style="color:#000000;fill:none;stroke:#000000;stroke-width:3.09800982000000010;stroke-linecap:butt;stroke-linejoin:miter;stroke-miterlimit:4;stroke-opacity:1;stroke-dasharray:none;stroke-dashoffset:0;marker:none;visibility:visible;display:inline;overflow:visible;enable-background:accumulate"
           inkscape:connector-curvature="0" />
      </g>
    </g>
  </g>
</svg>
